.Xil/Vivado-140744-HyperSilicon/hw_ila_data_2/zip_work/waveform.vcd
$date
        2017-Jun-30 09:57:09
$end
$version
        Vivado v2016.4 (64-bit)
$end
$timescale
        1ps
$end
$scope module dut $end
$var reg 1 " b2000t_c2c_bram_i/system_ila1/inst/probe0_1 $end
$var reg 1 # b2000t_c2c_bram_i/system_ila1/inst/probe1_1 $end
$var reg 60 $ b2000t_c2c_bram_i/system_ila1/inst/probe2_1 [59:0] $end
$var reg 60 ` b2000t_c2c_bram_i/system_ila1/inst/probe3_1 [59:0] $end
$var reg 60 >" b2000t_c2c_bram_i/system_ila1/inst/probe4_1 [59:0] $end
$var reg 60 z" b2000t_c2c_bram_i/system_ila1/inst/probe5_1 [59:0] $end
$var reg 3 X# Stream_Channel__i2_s0___axi_chip2chip_0_AXIS_TX_ [2:0] $end
$var reg 3 [# Stream_Channel__i2_s1___aurora_64b66b_0_USER_DATA_M_AXIS_RX_ [2:0] $end
$var reg 3 ^# Stream_Channel__i3_s0___axi_chip2chip_0_AXIS_TX_ [2:0] $end
$var reg 3 a# Stream_Channel__i3_s1___aurora_64b66b_0_USER_DATA_M_AXIS_RX_ [2:0] $end
$var reg 3 d# Stream_Channel__i4_s0___axi_chip2chip_0_AXIS_TX_ [2:0] $end
$var reg 3 g# Stream_Channel__i4_s1___aurora_64b66b_0_USER_DATA_M_AXIS_RX_ [2:0] $end
$var reg 1 j# _TRIGGER $end
$var reg 1 k# _WINDOW $end
$var reg 1 l# _GAP $end
$upscope $end
$enddefinitions $end
#0
$dumpvars
0"
0#
b0 $
b0 `
b0 >"
b0 z"
b0 X#
b0 [#
b0 ^#
b0 a#
b0 d#
b0 g#
0j#
1k#
0l#
$end
#128
1"
b111111111111111111111111111111111111111111111111111111111111 `
1j#
#145
b0 `
#162
0"
1#
b111111111111111111111111111111111111111111111111111111111111 $
#179
b0 $
#196
1"
0#
b10101010101010101010101010101010101010101010101010101010101 `
#213
0"
1#
b10101010101010101010101010101010101010101010101010101010101 $
#230
1"
0#
b101010101010101010101010101010101010101010101010101010101010 `
#247
0"
1#
b101010101010101010101010101010101010101010101010101010101010 $
#264
1"
0#
#281
0"
1#
#298
1"
0#
#315
0"
1#
#332
1"
0#
#349
0"
1#
#366
1"
0#
#383
0"
1#
#400
1"
0#
#417
0"
1#
#434
1"
0#
#451
0"
1#
#468
1"
0#
#485
0"
1#
#502
1"
0#
#519
0"
1#
#536
1"
0#
#553
0"
1#
#570
1"
0#
#587
0"
1#
#604
1"
0#
#621
0"
1#
#638
1"
0#
#655
0"
1#
#672
1"
0#
#689
0"
1#
#706
1"
0#
#723
0"
1#
#740
1"
0#
#757
0"
1#
#774
1"
0#
#791
0"
1#
#808
1"
0#
#825
0"
1#
#842
1"
0#
#859
0"
1#
#876
1"
0#
#893
0"
1#
#910
1"
0#
#927
0"
1#
#944
1"
0#
#961
0"
1#
#978
1"
0#
#995
0"
1#
#1012
1"
0#
